ttc 2.7
tgt 25.1
ctt 18.0
att 9.9
agg 0.1
atg 0.6
gcg 27.6
tta 10.8
gct 17.9
caa 18.8
aat 19.9
acg 21.2
cgt 2.0
tac 21.3
cta 13.9
cga 21.9
aca 24.9
ggc 21.4
tgg 4.8
ccg 29.8
gca 8.0
ggt 30.6
tcg 2.5
acc 17.4
cat 10.7
gag 7.5
gtc 18.8
tcc 6.5
act 7.7
cct 12.9
gtg 17.9
ttg 10.4
agc 15.1
atc 28.8
gaa 20.1
cca 2.4
gat 0.3
ctg 13.6
ttt 3.9
cgc 6.2
aac 29.8
tag 13.6
tct 0.4
gta 4.3
tgc 24.5
gac 31.3
taa 17.0
ccc 18.0
ggg 19.2
cag 7.3
aaa 6.0
aag 29.3
ctc 26.6
aga 30.0
tga 20.8
tca 24.4
cgg 30.6
ata 7.7
gga 28.3
gtt 26.7
gcc 2.9
cac 18.0
agt 0.5
tat 29.0
