ttc 19.9
tgt 20.3
ctt 10.9
att 11.8
agg 17.7
atg 14.1
gcg 29.3
tta 20.4
gct 20.7
caa 24.6
aat 32.4
acg 7.4
cgt 11.3
tac 8.6
cta 28.4
cga 0.5
aca 3.4
ggc 11.5
tgg 15.8
ccg 11.3
gca 16.4
ggt 17.5
tcg 23.3
acc 9.1
cat 25.6
gag 3.3
gtc 6.5
tcc 4.5
act 18.3
cct 11.1
gtg 0.3
ttg 1.7
agc 7.0
atc 23.2
gaa 12.7
cca 33.2
gat 26.5
ctg 20.2
ttt 3.8
cgc 21.2
aac 22.6
tag 9.7
tct 18.1
gta 33.7
tgc 5.0
gac 8.4
taa 17.2
ccc 3.6
ggg 24.5
cag 30.9
aaa 26.7
aag 1.3
ctc 31.4
aga 21.3
tga 3.4
tca 5.0
cgg 26.7
ata 32.3
gga 11.1
gtt 16.2
gcc 1.1
cac 11.4
agt 4.2
tat 28.6
